{
	"nodes": [
		{
			"id": 1,
			"x": 1400.0,
			"y": 300.0,
			"nodeType": "GATE"
		},
		{
			"id": 2,
			"x": 1800.0,
			"y": 300.0,
			"nodeType": "GATE"
		},
		{
			"id": 3,
			"x": 2200.0,
			"y": 300.0,
			"nodeType": "GATE"
		},
		{
			"id": 4,
			"x": 2600.0,
			"y": 300.0,
			"nodeType": "GATE"
		},
		{
			"id": 5,
			"x": 3100.0,
			"y": 300.0,
			"nodeType": "GATE"
		},
		{
			"id": 6,
			"x": 3400.0,
			"y": 300.0,
			"nodeType": "GATE"
		},
		{
			"id": 7,
			"x": 600.0,
			"y": 400.0,
			"nodeType": "ROADPOINT"
		},
		{
			"id": 8,
			"x": 1000.0,
			"y": 400.0,
			"nodeType": "ROADPOINT"
		},
		{
			"id": 9,
			"x": 1400.0,
			"y": 400.0,
			"nodeType": "ROADPOINT"
		},
		{
			"id": 10,
			"x": 1800.0,
			"y": 400.0,
			"nodeType": "ROADPOINT"
		},
		{
			"id": 11,
			"x": 2200.0,
			"y": 400.0,
			"nodeType": "ROADPOINT"
		},
		{
			"id": 12,
			"x": 2600.0,
			"y": 400.0,
			"nodeType": "ROADPOINT"
		},
		{
			"id": 13,
			"x": 3100.0,
			"y": 400.0,
			"nodeType": "ROADPOINT"
		},
		{
			"id": 14,
			"x": 3400.0,
			"y": 400.0,
			"nodeType": "ROADPOINT"
		},
		{
			"id": 15,
			"x": 300.0,
			"y": 600.0,
			"nodeType": "ROADPOINT"
		},
		{
			"id": 16,
			"x": 600.0,
			"y": 600.0,
			"nodeType": "ROADPOINT"
		},
		{
			"id": 17,
			"x": 1000.0,
			"y": 600.0,
			"nodeType": "ROADPOINT"
		},
		{
			"id": 18,
			"x": 1400.0,
			"y": 600.0,
			"nodeType": "ROADPOINT"
		},
		{
			"id": 19,
			"x": 1800.0,
			"y": 600.0,
			"nodeType": "ROADPOINT"
		},
		{
			"id": 20,
			"x": 2200.0,
			"y": 600.0,
			"nodeType": "ROADPOINT"
		},
		{
			"id": 21,
			"x": 2600.0,
			"y": 600.0,
			"nodeType": "ROADPOINT"
		},
		{
			"id": 22,
			"x": 3100.0,
			"y": 600.0,
			"nodeType": "ROADPOINT"
		},
		{
			"id": 23,
			"x": 600.0,
			"y": 800.0,
			"nodeType": "ROADPOINT"
		},
		{
			"id": 24,
			"x": 1000.0,
			"y": 800.0,
			"nodeType": "ROADPOINT"
		},
		{
			"id": 25,
			"x": 1400.0,
			"y": 800.0,
			"nodeType": "ROADPOINT"
		},
		{
			"id": 26,
			"x": 1800.0,
			"y": 800.0,
			"nodeType": "ROADPOINT"
		},
		{
			"id": 27,
			"x": 2200.0,
			"y": 800.0,
			"nodeType": "ROADPOINT"
		},
		{
			"id": 28,
			"x": 2600.0,
			"y": 800.0,
			"nodeType": "ROADPOINT"
		},
		{
			"id": 29,
			"x": 2800.0,
			"y": 800.0,
			"nodeType": "ROADPOINT"
		},
		{
			"id": 30,
			"x": 3100.0,
			"y": 800.0,
			"nodeType": "ROADPOINT"
		},
		{
			"id": 31,
			"x": 3400.0,
			"y": 800.0,
			"nodeType": "ROADPOINT"
		},
		{
			"id": 32,
			"x": 200.0,
			"y": 1000.0,
			"nodeType": "ROADPOINT"
		},
		{
			"id": 33,
			"x": 300.0,
			"y": 1000.0,
			"nodeType": "ROADPOINT"
		},
		{
			"id": 34,
			"x": 600.0,
			"y": 1000.0,
			"nodeType": "ROADPOINT"
		},
		{
			"id": 35,
			"x": 1000.0,
			"y": 1000.0,
			"nodeType": "ROADPOINT"
		},
		{
			"id": 36,
			"x": 1400.0,
			"y": 1000.0,
			"nodeType": "ROADPOINT"
		},
		{
			"id": 37,
			"x": 1800.0,
			"y": 1000.0,
			"nodeType": "ROADPOINT"
		},
		{
			"id": 38,
			"x": 2200.0,
			"y": 1000.0,
			"nodeType": "ROADPOINT"
		},
		{
			"id": 39,
			"x": 2600.0,
			"y": 1000.0,
			"nodeType": "ROADPOINT"
		},
		{
			"id": 40,
			"x": 2800.0,
			"y": 1000.0,
			"nodeType": "ROADPOINT"
		},
		{
			"id": 41,
			"x": 3100.0,
			"y": 1100.0,
			"nodeType": "ROADPOINT"
		},
		{
			"id": 42,
			"x": 3400.0,
			"y": 1100.0,
			"nodeType": "ROADPOINT"
		},
		{
			"id": 43,
			"x": 3700.0,
			"y": 1100.0,
			"nodeType": "ROADPOINT"
		},
		{
			"id": 44,
			"x": 500.0,
			"y": 1100.0,
			"nodeType": "ROADPOINT"
		},
		{
			"id": 45,
			"x": 600.0,
			"y": 1100.0,
			"nodeType": "ROADPOINT"
		},
		{
			"id": 46,
			"x": 600.0,
			"y": 1200.0,
			"nodeType": "ROADPOINT"
		},
		{
			"id": 47,
			"x": 500.0,
			"y": 1300.0,
			"nodeType": "ROADPOINT"
		},
		{
			"id": 48,
			"x": 600.0,
			"y": 1300.0,
			"nodeType": "ROADPOINT"
		},
		{
			"id": 49,
			"x": 900.0,
			"y": 1100.0,
			"nodeType": "ROADPOINT"
		},
		{
			"id": 50,
			"x": 1000.0,
			"y": 1100.0,
			"nodeType": "ROADPOINT"
		},
		{
			"id": 51,
			"x": 900.0,
			"y": 1200.0,
			"nodeType": "ROADPOINT"
		},
		{
			"id": 52,
			"x": 1000.0,
			"y": 1200.0,
			"nodeType": "ROADPOINT"
		},
		{
			"id": 53,
			"x": 900.0,
			"y": 1300.0,
			"nodeType": "ROADPOINT"
		},
		{
			"id": 54,
			"x": 1000.0,
			"y": 1300.0,
			"nodeType": "ROADPOINT"
		},
		{
			"id": 55,
			"x": 1400.0,
			"y": 1200.0,
			"nodeType": "ROADPOINT"
		},
		{
			"id": 56,
			"x": 1800.0,
			"y": 1200.0,
			"nodeType": "ROADPOINT"
		},
		{
			"id": 57,
			"x": 2200.0,
			"y": 1200.0,
			"nodeType": "ROADPOINT"
		},
		{
			"id": 58,
			"x": 2600.0,
			"y": 1200.0,
			"nodeType": "ROADPOINT"
		},
		{
			"id": 59,
			"x": 200.0,
			"y": 1400.0,
			"nodeType": "GATE"
		},
		{
			"id": 71,
			"x": 300.0,
			"y": 1400.0,
			"nodeType": "ROADPOINT"
		},
		{
			"id": 60,
			"x": 600.0,
			"y": 1400.0,
			"nodeType": "ROADPOINT"
		},
		{
			"id": 61,
			"x": 1000.0,
			"y": 1400.0,
			"nodeType": "ROADPOINT"
		},
		{
			"id": 62,
			"x": 1400.0,
			"y": 1400.0,
			"nodeType": "ROADPOINT"
		},
		{
			"id": 63,
			"x": 1800.0,
			"y": 1400.0,
			"nodeType": "ROADPOINT"
		},
		{
			"id": 64,
			"x": 2200.0,
			"y": 1400.0,
			"nodeType": "ROADPOINT"
		},
		{
			"id": 65,
			"x": 2600.0,
			"y": 1400.0,
			"nodeType": "ROADPOINT"
		},
		{
			"id": 66,
			"x": 2800.0,
			"y": 1400.0,
			"nodeType": "ROADPOINT"
		},
		{
			"id": 67,
			"x": 3100.0,
			"y": 1400.0,
			"nodeType": "ROADPOINT"
		},
		{
			"id": 68,
			"x": 3400.0,
			"y": 1400.0,
			"nodeType": "ROADPOINT"
		},
		{
			"id": 69,
			"x": 3700.0,
			"y": 1400.0,
			"nodeType": "ROADPOINT"
		}
		
		
	],
	"paths": [
		{
			"from": 1,
			"to": 9,
			"maxWidth": 8.0,
			"maxHeight": 5.0,
			"maxMass": 10000.0
		},
		{
			"from": 2,
			"to": 10,
			"maxWidth": 8.0,
			"maxHeight": 5.0,
			"maxMass": 10000.0
		},
		{
			"from": 3,
			"to": 11,
			"maxWidth": 8.0,
			"maxHeight": 5.0,
			"maxMass": 10000.0
		},
		{
			"from": 4,
			"to": 12,
			"maxWidth": 8.0,
			"maxHeight": 5.0,
			"maxMass": 10000.0
		},
		{
			"from": 5,
			"to": 13,
			"maxWidth": 8.0,
			"maxHeight": 5.0,
			"maxMass": 10000.0
		},
		{
			"from": 6,
			"to": 14,
			"maxWidth": 8.0,
			"maxHeight": 5.0,
			"maxMass": 10000.0
		},
		{
			"from": 7,
			"to": 8,
			"maxWidth": 8.0,
			"maxHeight": 5.0,
			"maxMass": 10000.0
		},
		{
			"from": 7,
			"to": 16,
			"maxWidth": 8.0,
			"maxHeight": 5.0,
			"maxMass": 10000.0
		},
		{
			"from": 8,
			"to": 9,
			"maxWidth": 8.0,
			"maxHeight": 5.0,
			"maxMass": 10000.0
		},
		{
			"from": 8,
			"to": 17,
			"maxWidth": 8.0,
			"maxHeight": 5.0,
			"maxMass": 10000.0
		},
		{
			"from": 9,
			"to": 10,
			"maxWidth": 8.0,
			"maxHeight": 5.0,
			"maxMass": 10000.0
		},
		{
			"from": 9,
			"to": 18,
			"maxWidth": 8.0,
			"maxHeight": 5.0,
			"maxMass": 10000.0
		},
		{
			"from": 10,
			"to": 11,
			"maxWidth": 8.0,
			"maxHeight": 5.0,
			"maxMass": 10000.0
		},
		{
			"from": 10,
			"to": 19,
			"maxWidth": 8.0,
			"maxHeight": 5.0,
			"maxMass": 10000.0
		},
		{
			"from": 11,
			"to": 12,
			"maxWidth": 8.0,
			"maxHeight": 5.0,
			"maxMass": 10000.0
		},
		{
			"from": 11,
			"to": 20,
			"maxWidth": 8.0,
			"maxHeight": 5.0,
			"maxMass": 10000.0
		},
		{
			"from": 12,
			"to": 13,
			"maxWidth": 8.0,
			"maxHeight": 5.0,
			"maxMass": 10000.0
		},
		{
			"from": 12,
			"to": 21,
			"maxWidth": 8.0,
			"maxHeight": 5.0,
			"maxMass": 10000.0
		},
		{
			"from": 13,
			"to": 14,
			"maxWidth": 8.0,
			"maxHeight": 5.0,
			"maxMass": 10000.0
		},
		{
			"from": 13,
			"to": 22,
			"maxWidth": 8.0,
			"maxHeight": 5.0,
			"maxMass": 10000.0
		},
		{
			"from": 14,
			"to": 31,
			"maxWidth": 8.0,
			"maxHeight": 5.0,
			"maxMass": 10000.0
		},
		{
			"from": 15,
			"to": 16,
			"maxWidth": 8.0,
			"maxHeight": 5.0,
			"maxMass": 10000.0
		},
		{
			"from": 16,
			"to": 17,
			"maxWidth": 8.0,
			"maxHeight": 5.0,
			"maxMass": 10000.0
		},
		{
			"from": 16,
			"to": 23,
			"maxWidth": 8.0,
			"maxHeight": 5.0,
			"maxMass": 10000.0
		},
		{
			"from": 17,
			"to": 18,
			"maxWidth": 8.0,
			"maxHeight": 5.0,
			"maxMass": 10000.0
		},
		{
			"from": 17,
			"to": 24,
			"maxWidth": 8.0,
			"maxHeight": 5.0,
			"maxMass": 10000.0
		},
		{
			"from": 18,
			"to": 19,
			"maxWidth": 8.0,
			"maxHeight": 5.0,
			"maxMass": 10000.0
		},
		{
			"from": 18,
			"to": 25,
			"maxWidth": 8.0,
			"maxHeight": 5.0,
			"maxMass": 10000.0
		},
		{
			"from": 19,
			"to": 20,
			"maxWidth": 8.0,
			"maxHeight": 5.0,
			"maxMass": 10000.0
		},
		{
			"from": 19,
			"to": 26,
			"maxWidth": 8.0,
			"maxHeight": 5.0,
			"maxMass": 10000.0
		},
		{
			"from": 20,
			"to": 21,
			"maxWidth": 8.0,
			"maxHeight": 5.0,
			"maxMass": 10000.0
		},
		{
			"from": 20,
			"to": 27,
			"maxWidth": 8.0,
			"maxHeight": 5.0,
			"maxMass": 10000.0
		},
		{
			"from": 21,
			"to": 22,
			"maxWidth": 8.0,
			"maxHeight": 5.0,
			"maxMass": 10000.0
		},
		{
			"from": 21,
			"to": 28,
			"maxWidth": 8.0,
			"maxHeight": 5.0,
			"maxMass": 10000.0
		},
		{
			"from": 22,
			"to": 30,
			"maxWidth": 8.0,
			"maxHeight": 5.0,
			"maxMass": 10000.0
		},
		{
			"from": 23,
			"to": 24,
			"maxWidth": 8.0,
			"maxHeight": 5.0,
			"maxMass": 10000.0
		},
		{
			"from": 24,
			"to": 25,
			"maxWidth": 8.0,
			"maxHeight": 5.0,
			"maxMass": 10000.0
		},
		{
			"from": 25,
			"to": 26,
			"maxWidth": 8.0,
			"maxHeight": 5.0,
			"maxMass": 10000.0
		},
		{
			"from": 26,
			"to": 27,
			"maxWidth": 8.0,
			"maxHeight": 5.0,
			"maxMass": 10000.0
		},
		{
			"from": 27,
			"to": 28,
			"maxWidth": 8.0,
			"maxHeight": 5.0,
			"maxMass": 10000.0
		},
		{
			"from": 28,
			"to": 29,
			"maxWidth": 8.0,
			"maxHeight": 5.0,
			"maxMass": 10000.0
		},
		{
			"from": 29,
			"to": 30,
			"maxWidth": 8.0,
			"maxHeight": 5.0,
			"maxMass": 10000.0
		},
		{
			"from": 30,
			"to": 31,
			"maxWidth": 8.0,
			"maxHeight": 5.0,
			"maxMass": 10000.0
		},
		{
			"from": 23,
			"to": 34,
			"maxWidth": 8.0,
			"maxHeight": 5.0,
			"maxMass": 10000.0
		},
		{
			"from": 24,
			"to": 35,
			"maxWidth": 8.0,
			"maxHeight": 5.0,
			"maxMass": 10000.0
		},
		{
			"from": 25,
			"to": 36,
			"maxWidth": 8.0,
			"maxHeight": 5.0,
			"maxMass": 10000.0
		},
		{
			"from": 26,
			"to": 37,
			"maxWidth": 8.0,
			"maxHeight": 5.0,
			"maxMass": 10000.0
		},
		{
			"from": 27,
			"to": 38,
			"maxWidth": 8.0,
			"maxHeight": 5.0,
			"maxMass": 10000.0
		},
		{
			"from": 28,
			"to": 39,
			"maxWidth": 8.0,
			"maxHeight": 5.0,
			"maxMass": 10000.0
		},
		{
			"from": 29,
			"to": 40,
			"maxWidth": 8.0,
			"maxHeight": 5.0,
			"maxMass": 10000.0
		},
		{
			"from": 30,
			"to": 41,
			"maxWidth": 8.0,
			"maxHeight": 5.0,
			"maxMass": 10000.0
		},
		{
			"from": 31,
			"to": 42,
			"maxWidth": 8.0,
			"maxHeight": 5.0,
			"maxMass": 10000.0
		},
		{
			"from": 32,
			"to": 33,
			"maxWidth": 8.0,
			"maxHeight": 5.0,
			"maxMass": 10000.0
		},
		{
			"from": 33,
			"to": 34,
			"maxWidth": 8.0,
			"maxHeight": 5.0,
			"maxMass": 10000.0
		},
		{
			"from": 33,
			"to": 71,
			"maxWidth": 8.0,
			"maxHeight": 5.0,
			"maxMass": 10000.0
		},
		{
			"from": 34,
			"to": 35,
			"maxWidth": 8.0,
			"maxHeight": 5.0,
			"maxMass": 10000.0
		},
		{
			"from": 34,
			"to": 45,
			"maxWidth": 8.0,
			"maxHeight": 5.0,
			"maxMass": 10000.0
		},
		{
			"from": 35,
			"to": 36,
			"maxWidth": 8.0,
			"maxHeight": 5.0,
			"maxMass": 10000.0
		},
		{
			"from": 35,
			"to": 50,
			"maxWidth": 8.0,
			"maxHeight": 5.0,
			"maxMass": 10000.0
		},
		{
			"from": 36,
			"to": 37,
			"maxWidth": 8.0,
			"maxHeight": 5.0,
			"maxMass": 10000.0
		},
		{
			"from": 36,
			"to": 55,
			"maxWidth": 8.0,
			"maxHeight": 5.0,
			"maxMass": 10000.0
		},
		{
			"from": 37,
			"to": 38,
			"maxWidth": 8.0,
			"maxHeight": 5.0,
			"maxMass": 10000.0
		},
		{
			"from": 37,
			"to": 56,
			"maxWidth": 8.0,
			"maxHeight": 5.0,
			"maxMass": 10000.0
		},
		{
			"from": 38,
			"to": 39,
			"maxWidth": 8.0,
			"maxHeight": 5.0,
			"maxMass": 10000.0
		},
		{
			"from": 38,
			"to": 57,
			"maxWidth": 8.0,
			"maxHeight": 5.0,
			"maxMass": 10000.0
		},
		{
			"from": 39,
			"to": 40,
			"maxWidth": 8.0,
			"maxHeight": 5.0,
			"maxMass": 10000.0
		},
		{
			"from": 4066,
			"to": 64,
			"maxWidth": 8.0,
			"maxHeight": 5.0,
			"maxMass": 10000.0
		},
		{
			"from": 39,
			"to": 58,
			"maxWidth": 8.0,
			"maxHeight": 5.0,
			"maxMass": 10000.0
		},
		{
			"from": 41,
			"to": 42,
			"maxWidth": 8.0,
			"maxHeight": 5.0,
			"maxMass": 10000.0
		},
		{
			"from": 41,
			"to": 67,
			"maxWidth": 8.0,
			"maxHeight": 5.0,
			"maxMass": 10000.0
		},
		{
			"from": 42,
			"to": 43,
			"maxWidth": 8.0,
			"maxHeight": 5.0,
			"maxMass": 10000.0
		},
		{
			"from": 42,
			"to": 68,
			"maxWidth": 8.0,
			"maxHeight": 5.0,
			"maxMass": 10000.0
		},
		{
			"from": 43,
			"to": 69,
			"maxWidth": 8.0,
			"maxHeight": 5.0,
			"maxMass": 10000.0
		},
		{
			"from": 44,
			"to": 45,
			"maxWidth": 8.0,
			"maxHeight": 5.0,
			"maxMass": 10000.0
		},
		{
			"from": 44,
			"to": 47,
			"maxWidth": 8.0,
			"maxHeight": 5.0,
			"maxMass": 10000.0
		},
		{
			"from": 45,
			"to": 46,
			"maxWidth": 8.0,
			"maxHeight": 5.0,
			"maxMass": 10000.0
		},
		
		{
			"from": 46,
			"to": 48,
			"maxWidth": 8.0,
			"maxHeight": 5.0,
			"maxMass": 10000.0
		},
		{
			"from": 47,
			"to": 48,
			"maxWidth": 8.0,
			"maxHeight": 5.0,
			"maxMass": 10000.0
		},
		{
			"from": 46,
			"to": 51,
			"maxWidth": 8.0,
			"maxHeight": 5.0,
			"maxMass": 10000.0
		},
		{
			"from": 49,
			"to": 50,
			"maxWidth": 8.0,
			"maxHeight": 5.0,
			"maxMass": 10000.0
		},
		{
			"from": 48,
			"to": 60,
			"maxWidth": 8.0,
			"maxHeight": 5.0,
			"maxMass": 10000.0
		},
		{
			"from": 54,
			"to": 61,
			"maxWidth": 8.0,
			"maxHeight": 5.0,
			"maxMass": 10000.0
		},
		{
			"from": 49,
			"to": 51,
			"maxWidth": 8.0,
			"maxHeight": 5.0,
			"maxMass": 10000.0
		},
		{
			"from": 50,
			"to": 52,
			"maxWidth": 8.0,
			"maxHeight": 5.0,
			"maxMass": 10000.0
		},
		{
			"from": 51,
			"to": 52,
			"maxWidth": 8.0,
			"maxHeight": 5.0,
			"maxMass": 10000.0
		},
		{
			"from": 51,
			"to": 53,
			"maxWidth": 8.0,
			"maxHeight": 5.0,
			"maxMass": 10000.0
		},
		{
			"from": 53,
			"to": 54,
			"maxWidth": 8.0,
			"maxHeight": 5.0,
			"maxMass": 10000.0
		},
		{
			"from": 52,
			"to": 54,
			"maxWidth": 8.0,
			"maxHeight": 5.0,
			"maxMass": 10000.0
		},
		{
			"from": 52,
			"to": 55,
			"maxWidth": 8.0,
			"maxHeight": 5.0,
			"maxMass": 10000.0
		},
		{
			"from": 55,
			"to": 56,
			"maxWidth": 8.0,
			"maxHeight": 5.0,
			"maxMass": 10000.0
		},
		{
			"from": 55,
			"to": 62,
			"maxWidth": 8.0,
			"maxHeight": 5.0,
			"maxMass": 10000.0
		},
		{
			"from": 56,
			"to": 63,
			"maxWidth": 8.0,
			"maxHeight": 5.0,
			"maxMass": 10000.0
		},
		{
			"from": 56,
			"to": 63,
			"maxWidth": 8.0,
			"maxHeight": 5.0,
			"maxMass": 10000.0
		},
		{
			"from": 57,
			"to": 58,
			"maxWidth": 8.0,
			"maxHeight": 5.0,
			"maxMass": 10000.0
		},
		{
			"from": 57,
			"to": 64,
			"maxWidth": 8.0,
			"maxHeight": 5.0,
			"maxMass": 10000.0
		},
		{
			"from": 58,
			"to": 65,
			"maxWidth": 8.0,
			"maxHeight": 5.0,
			"maxMass": 10000.0
		},
		{
			"from": 59,
			"to": 71,
			"maxWidth": 8.0,
			"maxHeight": 5.0,
			"maxMass": 10000.0
		},
		{
			"from": 71,
			"to": 60,
			"maxWidth": 8.0,
			"maxHeight": 5.0,
			"maxMass": 10000.0
		},
		{
			"from": 60,
			"to": 61,
			"maxWidth": 8.0,
			"maxHeight": 5.0,
			"maxMass": 10000.0
		},
		{
			"from": 61,
			"to": 62,
			"maxWidth": 8.0,
			"maxHeight": 5.0,
			"maxMass": 10000.0
		},
		{
			"from": 62,
			"to": 63,
			"maxWidth": 8.0,
			"maxHeight": 5.0,
			"maxMass": 10000.0
		},
		{
			"from": 63,
			"to": 64,
			"maxWidth": 8.0,
			"maxHeight": 5.0,
			"maxMass": 10000.0
		},
		{
			"from": 66,
			"to": 67,
			"maxWidth": 8.0,
			"maxHeight": 5.0,
			"maxMass": 10000.0
		},
		{
			"from": 67,
			"to": 68,
			"maxWidth": 8.0,
			"maxHeight": 5.0,
			"maxMass": 10000.0
		},
		{
			"from": 68,
			"to": 69,
			"maxWidth": 8.0,
			"maxHeight": 5.0,
			"maxMass": 10000.0
		}
	]
}